%YAML 1.1
%TAG !u! tag:unity3d.com,2011:
--- !u!181963792 &2655988077585873504
Preset:
  m_ObjectHideFlags: 0
  m_PrefabParentObject: {fileID: 0}
  m_PrefabInternal: {fileID: 0}
  m_Name: Point Warm Light
  m_TargetType:
    m_NativeTypeID: 108
    m_ManagedTypePPtr: {fileID: 0}
    m_ManagedTypeFallback: 
  m_Properties:
  - target: {fileID: 0}
    propertyPath: m_Enabled
    value: 1
    objectReference: {fileID: 0}
  - target: {fileID: 0}
    propertyPath: m_Type
    value: 2
    objectReference: {fileID: 0}
  - target: {fileID: 0}
    propertyPath: m_Color.r
    value: 1
    objectReference: {fileID: 0}
  - target: {fileID: 0}
    propertyPath: m_Color.g
    value: 0.8715788
    objectReference: {fileID: 0}
  - target: {fileID: 0}
    propertyPath: m_Color.b
    value: 0.5518868
    objectReference: {fileID: 0}
  - target: {fileID: 0}
    propertyPath: m_Color.a
    value: 1
    objectReference: {fileID: 0}
  - target: {fileID: 0}
    propertyPath: m_Intensity
    value: 1.8
    objectReference: {fileID: 0}
  - target: {fileID: 0}
    propertyPath: m_Range
    value: 25
    objectReference: {fileID: 0}
  - target: {fileID: 0}
    propertyPath: m_SpotAngle
    value: 30
    objectReference: {fileID: 0}
  - target: {fileID: 0}
    propertyPath: m_CookieSize
    value: 10
    objectReference: {fileID: 0}
  - target: {fileID: 0}
    propertyPath: m_Shadows.m_Type
    value: 0
    objectReference: {fileID: 0}
  - target: {fileID: 0}
    propertyPath: m_Shadows.m_Resolution
    value: -1
    objectReference: {fileID: 0}
  - target: {fileID: 0}
    propertyPath: m_Shadows.m_CustomResolution
    value: -1
    objectReference: {fileID: 0}
  - target: {fileID: 0}
    propertyPath: m_Shadows.m_Strength
    value: 1
    objectReference: {fileID: 0}
  - target: {fileID: 0}
    propertyPath: m_Shadows.m_Bias
    value: 0.05
    objectReference: {fileID: 0}
  - target: {fileID: 0}
    propertyPath: m_Shadows.m_NormalBias
    value: 0.4
    objectReference: {fileID: 0}
  - target: {fileID: 0}
    propertyPath: m_Shadows.m_NearPlane
    value: 0.2
    objectReference: {fileID: 0}
  - target: {fileID: 0}
    propertyPath: m_Cookie
    value: 
    objectReference: {fileID: 0}
  - target: {fileID: 0}
    propertyPath: m_DrawHalo
    value: 0
    objectReference: {fileID: 0}
  - target: {fileID: 0}
    propertyPath: m_Flare
    value: 
    objectReference: {fileID: 0}
  - target: {fileID: 0}
    propertyPath: m_RenderMode
    value: 0
    objectReference: {fileID: 0}
  - target: {fileID: 0}
    propertyPath: m_CullingMask.m_Bits
    value: 4294967295
    objectReference: {fileID: 0}
  - target: {fileID: 0}
    propertyPath: m_Lightmapping
    value: 4
    objectReference: {fileID: 0}
  - target: {fileID: 0}
    propertyPath: m_AreaSize.x
    value: 1
    objectReference: {fileID: 0}
  - target: {fileID: 0}
    propertyPath: m_AreaSize.y
    value: 1
    objectReference: {fileID: 0}
  - target: {fileID: 0}
    propertyPath: m_BounceIntensity
    value: 1
    objectReference: {fileID: 0}
  - target: {fileID: 0}
    propertyPath: m_ColorTemperature
    value: 6570
    objectReference: {fileID: 0}
  - target: {fileID: 0}
    propertyPath: m_UseColorTemperature
    value: 0
    objectReference: {fileID: 0}
  - target: {fileID: 0}
    propertyPath: m_ShadowRadius
    value: 0
    objectReference: {fileID: 0}
  - target: {fileID: 0}
    propertyPath: m_ShadowAngle
    value: 0
    objectReference: {fileID: 0}
