%YAML 1.1
%TAG !u! tag:unity3d.com,2011:
--- !u!114 &11400000
MonoBehaviour:
  m_ObjectHideFlags: 0
  m_PrefabParentObject: {fileID: 0}
  m_PrefabInternal: {fileID: 0}
  m_GameObject: {fileID: 0}
  m_Enabled: 1
  m_EditorHideFlags: 0
  m_Script: {fileID: 11500000, guid: fb397e61237842f4a93903b75d120272, type: 3}
  m_Name: Sword Weapon Properties
  m_EditorClassIdentifier: 
  _damagePercentageMultiplier: 1
  _movementSpeedPercentageMultiplier: 1
  _attackIntervalTime:
    Min: 0.3
    Max: 0.3
